Sixth Week: Linear Models
…
۱۰. بر اساس مدل نهایی به دست آمده نتایج پیش بینی خود را بر روی test.csv به دست آورید و در سایت kaggle در مسابقه House Prices: Advanced Regression Techniques بارگذاری نمایید. سپس لینک رتبه و عدد آن را ضمیمه تمرین کنید.

پاسخ:

پیش بینی قیمت های داده های تست را با هر سه مدل قسمت قبل انجام داده و در مسابقه ثبت می کنیم. بهترین نتیج با مدل دوم به دست آمدند:

test = read_csv("F:/University/8th Semester/Data Analysis/Class/Week 6/house/test.csv")
test %>% mutate(age = 2018 - YearBuilt) %>% select(Id,OverallQual, GrLivArea, GarageCars,
                                          TotalBsmtSF,age,YearRemodAdd )

## # A tibble: 1,459 x 7
##       Id OverallQual GrLivArea GarageCars TotalBsmtSF   age YearRemodAdd
##    <int>       <int>     <int>      <int>       <int> <dbl>        <int>
##  1  1461           5       896          1         882  57.0         1961
##  2  1462           6      1329          1        1329  60.0         1958
##  3  1463           5      1629          2         928  21.0         1998
##  4  1464           6      1604          2         926  20.0         1998
##  5  1465           8      1280          2        1280  26.0         1992
##  6  1466           6      1655          2         763  25.0         1994
##  7  1467           6      1187          2        1168  26.0         2007
##  8  1468           6      1465          2         789  20.0         1998
##  9  1469           7      1341          2        1300  28.0         1990
## 10  1470           4       882          2         882  48.0         1970
## # ... with 1,449 more rows
…
